%YAML 1.1
%TAG !u! tag:unity3d.com,2011:
--- !u!1 &138290
GameObject:
  m_ObjectHideFlags: 0
  m_PrefabParentObject: {fileID: 0}
  m_PrefabInternal: {fileID: 100100000}
  serializedVersion: 4
  m_Component:
  - 4: {fileID: 430538}
  - 114: {fileID: 11470366}
  m_Layer: 0
  m_Name: _AudioManager
  m_TagString: Untagged
  m_Icon: {fileID: 0}
  m_NavMeshLayer: 0
  m_StaticEditorFlags: 0
  m_IsActive: 1
--- !u!4 &430538
Transform:
  m_ObjectHideFlags: 1
  m_PrefabParentObject: {fileID: 0}
  m_PrefabInternal: {fileID: 100100000}
  m_GameObject: {fileID: 138290}
  m_LocalRotation: {x: 0, y: 0, z: 0, w: 1}
  m_LocalPosition: {x: 519.473694, y: 125.012672, z: 0}
  m_LocalScale: {x: 1, y: 1, z: 1}
  m_Children: []
  m_Father: {fileID: 0}
  m_RootOrder: 0
--- !u!114 &11470366
MonoBehaviour:
  m_ObjectHideFlags: 1
  m_PrefabParentObject: {fileID: 0}
  m_PrefabInternal: {fileID: 100100000}
  m_GameObject: {fileID: 138290}
  m_Enabled: 1
  m_EditorHideFlags: 0
  m_Script: {fileID: 11500000, guid: 74fcc9b98011347468666e40b3a3b520, type: 3}
  m_Name: 
  m_EditorClassIdentifier: 
  Listener: {fileID: 0}
  MusicGroup: {fileID: 24304940, guid: ccfe756685fdea24a9355964ce20fcd6, type: 2}
  AnnouncerGroup: {fileID: 24374280, guid: ccfe756685fdea24a9355964ce20fcd6, type: 2}
  AmbientGroup: {fileID: 24349530, guid: ccfe756685fdea24a9355964ce20fcd6, type: 2}
  PlayersGroup: {fileID: 24313868, guid: ccfe756685fdea24a9355964ce20fcd6, type: 2}
  EnemiesGroup: {fileID: 24312300, guid: ccfe756685fdea24a9355964ce20fcd6, type: 2}
  NoPlayerSounds: 8
  NoEnemySounds: 8
  NoAmbientSounds: 8
--- !u!1001 &100100000
Prefab:
  m_ObjectHideFlags: 1
  serializedVersion: 2
  m_Modification:
    m_TransformParent: {fileID: 0}
    m_Modifications: []
    m_RemovedComponents: []
  m_ParentPrefab: {fileID: 0}
  m_RootGameObject: {fileID: 138290}
  m_IsPrefabParent: 1
