%YAML 1.1
%TAG !u! tag:unity3d.com,2011:
--- !u!1 &167446
GameObject:
  m_ObjectHideFlags: 0
  m_PrefabParentObject: {fileID: 0}
  m_PrefabInternal: {fileID: 100100000}
  serializedVersion: 4
  m_Component:
  - 4: {fileID: 402626}
  - 114: {fileID: 11469358}
  m_Layer: 0
  m_Name: _BattleManager
  m_TagString: Untagged
  m_Icon: {fileID: 0}
  m_NavMeshLayer: 0
  m_StaticEditorFlags: 0
  m_IsActive: 1
--- !u!4 &402626
Transform:
  m_ObjectHideFlags: 1
  m_PrefabParentObject: {fileID: 0}
  m_PrefabInternal: {fileID: 100100000}
  m_GameObject: {fileID: 167446}
  m_LocalRotation: {x: 0, y: 0, z: 0, w: 1}
  m_LocalPosition: {x: 499.5, y: 281, z: 0}
  m_LocalScale: {x: 1, y: 1, z: 1}
  m_Children: []
  m_Father: {fileID: 0}
  m_RootOrder: 0
--- !u!114 &11469358
MonoBehaviour:
  m_ObjectHideFlags: 1
  m_PrefabParentObject: {fileID: 0}
  m_PrefabInternal: {fileID: 100100000}
  m_GameObject: {fileID: 167446}
  m_Enabled: 1
  m_EditorHideFlags: 0
  m_Script: {fileID: 11500000, guid: 7620c5be6b951ff4fbd906a561d9c3db, type: 3}
  m_Name: 
  m_EditorClassIdentifier: 
  P1Start: {x: 0, y: 0, z: 0}
  P2Start: {x: 0, y: 0, z: 0}
  Player1: {fileID: 0}
  Player2: {fileID: 0}
  UICanvas: {fileID: 0}
  UICanvasGroup: {fileID: 0}
  UIButton: {fileID: 0}
  OverlayImage: {fileID: 0}
  StartScreen: {fileID: 21300000, guid: a5d3310d96ded184e89c3006e0747a3d, type: 3}
  P1WinScreen: {fileID: 21300000, guid: 5aabdd8d2d043fa44920931910fd1e95, type: 3}
  P2WinScreen: {fileID: 21300000, guid: 3fd3afaa8e0915444aa17288303de9c9, type: 3}
  FightScreen: {fileID: 21300000, guid: f1a67208fbe29dc439c1f4306f35384f, type: 3}
  ClickToPlay: {fileID: 21300000, guid: 57ec2fabec1e57c4cb8bb7d84024afec, type: 3}
  ClickToPlayAgain: {fileID: 21300000, guid: 21ffb34ea9597cb4b9fa253415ca84a8, type: 3}
  MusicMixer: {fileID: 24304940, guid: ccfe756685fdea24a9355964ce20fcd6, type: 2}
  MainMusic: {fileID: 8300000, guid: f8a4b060ae742bc4d83d01cf48da12dc, type: 3}
  FightClips:
  - {fileID: 8300000, guid: f3e03d1ae49c6694ebbbaeb868a0683d, type: 3}
  - {fileID: 8300000, guid: 9d750eff959f8b046b117e902b4282ed, type: 3}
  AnnouncerClips:
  - {fileID: 8300000, guid: 6ee842e8f4ba46f44b9362a5605b9971, type: 3}
  - {fileID: 8300000, guid: 68a4ca450ab261c4496a7f7c2688605b, type: 3}
  - {fileID: 8300000, guid: 956794fe1d1809240975ab3cd8929bf3, type: 3}
  - {fileID: 8300000, guid: 27c8d2995f1d9624c80b6c82e15d0e3e, type: 3}
  - {fileID: 8300000, guid: 1943b732d1e41c643b4217a622ae58ed, type: 3}
  GamePlayIsPaused: 1
--- !u!1001 &100100000
Prefab:
  m_ObjectHideFlags: 1
  serializedVersion: 2
  m_Modification:
    m_TransformParent: {fileID: 0}
    m_Modifications: []
    m_RemovedComponents: []
  m_ParentPrefab: {fileID: 0}
  m_RootGameObject: {fileID: 167446}
  m_IsPrefabParent: 1
