%YAML 1.1
%TAG !u! tag:unity3d.com,2011:
--- !u!1 &111310
GameObject:
  m_ObjectHideFlags: 0
  m_PrefabParentObject: {fileID: 0}
  m_PrefabInternal: {fileID: 100100000}
  serializedVersion: 4
  m_Component:
  - 4: {fileID: 406188}
  - 212: {fileID: 21241240}
  - 50: {fileID: 5094936}
  - 114: {fileID: 11454270}
  - 60: {fileID: 6006742}
  m_Layer: 0
  m_Name: WeaponLeg01
  m_TagString: WeaponItem
  m_Icon: {fileID: 0}
  m_NavMeshLayer: 0
  m_StaticEditorFlags: 0
  m_IsActive: 1
--- !u!4 &406188
Transform:
  m_ObjectHideFlags: 1
  m_PrefabParentObject: {fileID: 0}
  m_PrefabInternal: {fileID: 100100000}
  m_GameObject: {fileID: 111310}
  m_LocalRotation: {x: 0, y: 0, z: 0, w: 1}
  m_LocalPosition: {x: .333000004, y: -.0489999987, z: 10}
  m_LocalScale: {x: 1, y: 1, z: 1}
  m_Children: []
  m_Father: {fileID: 0}
  m_RootOrder: 0
--- !u!50 &5094936
Rigidbody2D:
  m_ObjectHideFlags: 1
  m_PrefabParentObject: {fileID: 0}
  m_PrefabInternal: {fileID: 100100000}
  m_GameObject: {fileID: 111310}
  m_Mass: 1
  m_LinearDrag: 0
  m_AngularDrag: .0500000007
  m_GravityScale: 1
  m_FixedAngle: 0
  m_IsKinematic: 0
  m_Interpolate: 0
  m_SleepingMode: 1
  m_CollisionDetection: 0
--- !u!60 &6006742
PolygonCollider2D:
  m_ObjectHideFlags: 1
  m_PrefabParentObject: {fileID: 0}
  m_PrefabInternal: {fileID: 100100000}
  m_GameObject: {fileID: 111310}
  m_Enabled: 1
  m_Material: {fileID: 0}
  m_IsTrigger: 0
  m_UsedByEffector: 0
  m_Offset: {x: 0, y: 0}
  m_Points:
    m_Paths:
    - - {x: -.0507790446, y: -.00823479518}
      - {x: .0399309993, y: -.01217952}
      - {x: .0330275893, y: .0417652465}
--- !u!114 &11454270
MonoBehaviour:
  m_ObjectHideFlags: 1
  m_PrefabParentObject: {fileID: 0}
  m_PrefabInternal: {fileID: 100100000}
  m_GameObject: {fileID: 111310}
  m_Enabled: 1
  m_EditorHideFlags: 0
  m_Script: {fileID: 11500000, guid: 9a799fb004d93664989ccfad90a01d5d, type: 3}
  m_Name: 
  m_EditorClassIdentifier: 
  StartState: 0
  PickupClip: {fileID: 8300000, guid: 998a2454db4400747a39aed6d42c518f, type: 3}
  AllStates:
  - State: 0
    LinearDrag: 0
    AngularDrag: 0
    Mass: 0
    IsKinematic: 1
    DetectionMode: 0
    ColliderEnabled: 0
    DamageMultiplier: 1
  - State: 1
    LinearDrag: 1.5
    AngularDrag: .0500000007
    Mass: 1
    IsKinematic: 0
    DetectionMode: 1
    ColliderEnabled: 1
    DamageMultiplier: 1
  - State: 2
    LinearDrag: 0
    AngularDrag: .0500000007
    Mass: 1
    IsKinematic: 1
    DetectionMode: 0
    ColliderEnabled: 1
    DamageMultiplier: 1
  - State: 3
    LinearDrag: 1
    AngularDrag: .0500000007
    Mass: 1.29999995
    IsKinematic: 0
    DetectionMode: 1
    ColliderEnabled: 1
    DamageMultiplier: 4
--- !u!212 &21241240
SpriteRenderer:
  m_ObjectHideFlags: 1
  m_PrefabParentObject: {fileID: 0}
  m_PrefabInternal: {fileID: 100100000}
  m_GameObject: {fileID: 111310}
  m_Enabled: 1
  m_CastShadows: 0
  m_ReceiveShadows: 0
  m_Materials:
  - {fileID: 10754, guid: 0000000000000000e000000000000000, type: 0}
  m_SubsetIndices: 
  m_StaticBatchRoot: {fileID: 0}
  m_UseLightProbes: 1
  m_ReflectionProbeUsage: 1
  m_ProbeAnchor: {fileID: 0}
  m_ScaleInLightmap: 1
  m_PreserveUVs: 0
  m_ImportantGI: 0
  m_AutoUVMaxDistance: .5
  m_AutoUVMaxAngle: 89
  m_LightmapParameters: {fileID: 0}
  m_SortingLayerID: 1322859053
  m_SortingOrder: 0
  m_Sprite: {fileID: 21300010, guid: 7272e08fb80eb784d9575994b883234e, type: 3}
  m_Color: {r: 1, g: 1, b: 1, a: 1}
--- !u!1001 &100100000
Prefab:
  m_ObjectHideFlags: 1
  serializedVersion: 2
  m_Modification:
    m_TransformParent: {fileID: 0}
    m_Modifications: []
    m_RemovedComponents: []
  m_ParentPrefab: {fileID: 0}
  m_RootGameObject: {fileID: 111310}
  m_IsPrefabParent: 1
